…
gap_nested <- gap %>%
  group_by(continent) %>%
  nest()
gap_nested
#> # A tibble: 4 x 2
#>   continent data              
#>   <fct>     <list>            
#> 1 Europe    <tibble [60 × 2]> 
#> 2 Americas  <tibble [50 × 2]> 
#> 3 Asia      <tibble [66 × 2]> 
#> 4 Africa    <tibble [104 × 2]>

gap_nested$data[[1]]
#> # A tibble: 60 x 2
#>     year lifeExp
#>    <int>   <dbl>
#>  1  1952    55.2
#>  2  1952    66.8
#>  3  1952    68.0
#>  4  1952    53.8
#>  5  1952    59.6
#>  6  1952    61.2
#>  7  1952    66.9
#>  8  1952    70.8
#>  9  1952    66.6
#> 10  1952    67.4
#> # ... with 50 more rows
…
